[
{
    "id": "ID1",
    "name": "Name1",
    "image": {
        "url": "https://cdn2.thecatapi.com/images/0XYvRd7oD.jpg",
    },
    "temperament": "Temperament1",
    "energy_level": 1
},
{
    "id": "ID2",
    "name": "Name2",
    "image": {
        "url": "https://cdn2.thecatapi.com/images/xnsqonbjW.jpg",
    },
    "temperament": "Temperament2",
    "energy_level": 2
}
]
